…
 [9] "Cauca"           "Cesar"           "Choco"           "Cordoba"        
[13] "Cundinamarca"    "Guainia"         "Guajira"         "Huila"          
[17] "Magdalena"       "Meta"            "Nariño"          "Nte Santander"  
[21] "Putumayo"        "Quindio"         "Risaralda"       "Santa Marta"    
[25] "Santander"       "Sucre"           "Tolima"          "Valle del Cauca"
[29] "Vaupes"         
 [1] "Bogota"          "Valle del Cauca" "resto"           "Bolivar"        
 [5] "Cundinamarca"    "Atlantico"       "Nariño"          "Cordoba"        
 [9] "Sucre"           "Magdalena"       "Choco"           "Amazonas"       
# A tibble: 2 x 2
  Measure `sum(Value)`
  <chr>          <dbl>
1 Cases         106110
2 Deaths          3627
# A tibble: 24 x 3
# Groups:   Region [12]
   Region    Measure `sum(Value)`
   <chr>     <chr>          <dbl>
 1 Amazonas  Cases           2325
 2 Amazonas  Deaths            89
 3 Atlantico Cases          25181
 4 Atlantico Deaths          1288
 5 Bogota    Cases          32726
 6 Bogota    Deaths           728
 7 Bolivar   Cases           9629
 8 Bolivar   Deaths           385
 9 Choco     Cases           1740
10 Choco     Deaths            51
# ... with 14 more rows
…
[1] "2020-06-29"
Joining, by = c("Region", "Sex", "Measure", "Age")
[1] "2020-06-30"
Joining, by = c("Region", "Sex", "Measure", "Age")
[1] "2020-07-01"
Joining, by = c("Region", "Sex", "Measure", "Age")
[1] "2020-07-02"
Joining, by = c("Region", "Sex", "Measure", "Age")
Joining, by = "Region"
# A tibble: 1 x 3
  Region  Cases Deaths
  <chr>   <dbl>  <dbl>
1 All    103715   3627
Adding missing grouping variables: `Region`
# A tibble: 22 x 3
# Groups:   Region [11]
   Region    Measure Value
   <chr>     <chr>   <dbl>
 1 Amazonas  Cases    2249
 2 Amazonas  Deaths     89
 3 Atlantico Cases   24003
 4 Atlantico Deaths   1288
 5 Bogota    Cases   32708
 6 Bogota    Deaths    728
 7 Bolivar   Cases    9297
 8 Bolivar   Deaths    385
 9 Choco     Cases    1681
10 Choco     Deaths     51
# ... with 12 more rows
…
 [9] "Cauca"           "Cesar"           "Choco"           "Cordoba"        
[13] "Cundinamarca"    "Guainia"         "Guajira"         "Huila"          
[17] "Magdalena"       "Meta"            "Nariño"          "Nte Santander"  
[21] "Putumayo"        "Quindio"         "Risaralda"       "Santa Marta"    
[25] "Santander"       "Sucre"           "Tolima"          "Valle del Cauca"
[29] "Vaupes"         
 [1] "Bogota"          "Valle del Cauca" "resto"           "Bolivar"        
 [5] "Cundinamarca"    "Atlantico"       "Nariño"          "Cordoba"        
 [9] "Sucre"           "Magdalena"       "Choco"           "Amazonas"       
# A tibble: 2 x 2
  Measure `sum(Value)`
  <chr>          <dbl>
1 Cases         106110
2 Deaths          3627
# A tibble: 24 x 3
# Groups:   Region [12]
   Region    Measure `sum(Value)`
   <chr>     <chr>          <dbl>
 1 Amazonas  Cases           2325
 2 Amazonas  Deaths            89
 3 Atlantico Cases          25181
 4 Atlantico Deaths          1288
 5 Bogota    Cases          32726
 6 Bogota    Deaths           728
 7 Bolivar   Cases           9629
 8 Bolivar   Deaths           385
 9 Choco     Cases           1740
10 Choco     Deaths            51
# ... with 14 more rows
…
[1] "2020-06-29"
Joining, by = c("Region", "Sex", "Measure", "Age")
[1] "2020-06-30"
Joining, by = c("Region", "Sex", "Measure", "Age")
[1] "2020-07-01"
Joining, by = c("Region", "Sex", "Measure", "Age")
[1] "2020-07-02"
Joining, by = c("Region", "Sex", "Measure", "Age")
Joining, by = "Region"
# A tibble: 1 x 3
  Region  Cases Deaths
  <chr>   <dbl>  <dbl>
1 All    103715   3627
Adding missing grouping variables: `Region`
# A tibble: 22 x 3
# Groups:   Region [11]
   Region    Measure Value
   <chr>     <chr>   <dbl>
 1 Amazonas  Cases    2249
 2 Amazonas  Deaths     89
 3 Atlantico Cases   24003
 4 Atlantico Deaths   1288
 5 Bogota    Cases   32708
 6 Bogota    Deaths    728
 7 Bolivar   Cases    9297
 8 Bolivar   Deaths    385
 9 Choco     Cases    1681
10 Choco     Deaths     51
# ... with 12 more rows
…
[13] "Cundinamarca"    "Guainia"         "Guajira"         "Huila"          
[17] "Magdalena"       "Meta"            "Nariño"          "Nte Santander"  
[21] "Putumayo"        "Quindio"         "Risaralda"       "Santa Marta"    
[25] "Santander"       "Sucre"           "Tolima"          "Valle del Cauca"
[29] "Vaupes"         
 [1] "Bogota"          "Valle del Cauca" "resto"           "Bolivar"        
 [5] "Cundinamarca"    "Atlantico"       "Santa Marta"     "Nariño"         
 [9] "Cordoba"         "Sucre"           "Magdalena"       "Choco"          
[13] "Amazonas"       
# A tibble: 2 x 2
  Measure `sum(Value)`
  <chr>          <dbl>
1 Cases         109505
2 Deaths          3763
# A tibble: 26 x 3
# Groups:   Region [13]
   Region    Measure `sum(Value)`
   <chr>     <chr>          <dbl>
 1 Amazonas  Cases           2328
 2 Amazonas  Deaths            89
 3 Atlantico Cases          25788
 4 Atlantico Deaths          1334
 5 Bogota    Cases          34131
 6 Bogota    Deaths           758
 7 Bolivar   Cases           9854
 8 Bolivar   Deaths           392
 9 Choco     Cases           1754
10 Choco     Deaths            53
# ... with 16 more rows
…
[1] "2020-06-30"
Joining, by = c("Region", "Sex", "Measure", "Age")
[1] "2020-07-01"
Joining, by = c("Region", "Sex", "Measure", "Age")
[1] "2020-07-02"
Joining, by = c("Region", "Sex", "Measure", "Age")
[1] "2020-07-03"
Joining, by = c("Region", "Sex", "Measure", "Age")
Joining, by = "Region"
# A tibble: 1 x 3
  Region  Cases Deaths
  <chr>   <dbl>  <dbl>
1 All    107008   3763
Adding missing grouping variables: `Region`
# A tibble: 24 x 3
# Groups:   Region [12]
   Region    Measure Value
   <chr>     <chr>   <dbl>
 1 Amazonas  Cases    2252
 2 Amazonas  Deaths     89
 3 Atlantico Cases   24566
 4 Atlantico Deaths   1334
 5 Bogota    Cases   34112
 6 Bogota    Deaths    758
 7 Bolivar   Cases    9495
 8 Bolivar   Deaths    392
 9 Choco     Cases    1694
10 Choco     Deaths     53
# ... with 14 more rows
…
[13] "Cundinamarca"    "Guainia"         "Guajira"         "Huila"          
[17] "Magdalena"       "Meta"            "Nariño"          "Nte Santander"  
[21] "Putumayo"        "Quindio"         "Risaralda"       "Santa Marta"    
[25] "Santander"       "Sucre"           "Tolima"          "Valle del Cauca"
[29] "Vaupes"         
 [1] "Bogota"          "Valle del Cauca" "resto"           "Bolivar"        
 [5] "Cundinamarca"    "Atlantico"       "Santa Marta"     "Nariño"         
 [9] "Cordoba"         "Sucre"           "Magdalena"       "Choco"          
[13] "Amazonas"       
# A tibble: 2 x 2
  Measure `sum(Value)`
  <chr>          <dbl>
1 Cases         113389
2 Deaths          3928
# A tibble: 26 x 3
# Groups:   Region [13]
   Region    Measure `sum(Value)`
   <chr>     <chr>          <dbl>
 1 Amazonas  Cases           2335
 2 Amazonas  Deaths            89
 3 Atlantico Cases          26406
 4 Atlantico Deaths          1408
 5 Bogota    Cases          35266
 6 Bogota    Deaths           793
 7 Bolivar   Cases          10134
 8 Bolivar   Deaths           399
 9 Choco     Cases           1833
10 Choco     Deaths            53
# ... with 16 more rows
…
[1] "2020-07-01"
Joining, by = c("Region", "Sex", "Measure", "Age")
[1] "2020-07-02"
Joining, by = c("Region", "Sex", "Measure", "Age")
[1] "2020-07-03"
Joining, by = c("Region", "Sex", "Measure", "Age")
[1] "2020-07-04"
Joining, by = c("Region", "Sex", "Measure", "Age")
Joining, by = "Region"
# A tibble: 1 x 3
  Region  Cases Deaths
  <chr>   <dbl>  <dbl>
1 All    110773   3928
Adding missing grouping variables: `Region`
# A tibble: 24 x 3
# Groups:   Region [12]
   Region    Measure Value
   <chr>     <chr>   <dbl>
 1 Amazonas  Cases    2254
 2 Amazonas  Deaths     89
 3 Atlantico Cases   25128
 4 Atlantico Deaths   1408
 5 Bogota    Cases   35247
 6 Bogota    Deaths    793
 7 Bolivar   Cases    9765
 8 Bolivar   Deaths    399
 9 Choco     Cases    1770
10 Choco     Deaths     53
# ... with 14 more rows
…
[13] "Cundinamarca"    "Guainia"         "Guajira"         "Huila"          
[17] "Magdalena"       "Meta"            "Nariño"          "Nte Santander"  
[21] "Putumayo"        "Quindio"         "Risaralda"       "Santa Marta"    
[25] "Santander"       "Sucre"           "Tolima"          "Valle del Cauca"
[29] "Vaupes"         
 [1] "Bogota"          "Valle del Cauca" "resto"           "Bolivar"        
 [5] "Cundinamarca"    "Atlantico"       "Santa Marta"     "Nariño"         
 [9] "Cordoba"         "Sucre"           "Magdalena"       "Choco"          
[13] "Amazonas"       
# A tibble: 2 x 2
  Measure `sum(Value)`
  <chr>          <dbl>
1 Cases         117110
2 Deaths          4051
# A tibble: 26 x 3
# Groups:   Region [13]
   Region    Measure `sum(Value)`
   <chr>     <chr>          <dbl>
 1 Amazonas  Cases           2364
 2 Amazonas  Deaths            89
 3 Atlantico Cases          27251
 4 Atlantico Deaths          1459
 5 Bogota    Cases          36554
 6 Bogota    Deaths           822
 7 Bolivar   Cases          10494
 8 Bolivar   Deaths           404
 9 Choco     Cases           1869
10 Choco     Deaths            55
# ... with 16 more rows
…
[1] "2020-07-02"
Joining, by = c("Region", "Sex", "Measure", "Age")
[1] "2020-07-03"
Joining, by = c("Region", "Sex", "Measure", "Age")
[1] "2020-07-04"
Joining, by = c("Region", "Sex", "Measure", "Age")
[1] "2020-07-05"
Joining, by = c("Region", "Sex", "Measure", "Age")
Joining, by = "Region"
# A tibble: 1 x 3
  Region  Cases Deaths
  <chr>   <dbl>  <dbl>
1 All    114357   4051
Adding missing grouping variables: `Region`
# A tibble: 24 x 3
# Groups:   Region [12]
   Region    Measure Value
   <chr>     <chr>   <dbl>
 1 Amazonas  Cases    2276
 2 Amazonas  Deaths     89
 3 Atlantico Cases   25920
 4 Atlantico Deaths   1459
 5 Bogota    Cases   36522
 6 Bogota    Deaths    822
 7 Bolivar   Cases   10107
 8 Bolivar   Deaths    404
 9 Choco     Cases    1806
10 Choco     Deaths     55
# ... with 14 more rows
…
[13] "Cundinamarca"    "Guainia"         "Guajira"         "Huila"          
[17] "Magdalena"       "Meta"            "Nariño"          "Nte Santander"  
[21] "Putumayo"        "Quindio"         "Risaralda"       "Santa Marta"    
[25] "Santander"       "Sucre"           "Tolima"          "Valle del Cauca"
[29] "Vaupes"         
 [1] "Bogota"          "Valle del Cauca" "Antioquia"       "Bolivar"        
 [5] "resto"           "Cundinamarca"    "Atlantico"       "Santa Marta"    
 [9] "Nariño"          "Cordoba"         "Sucre"           "Magdalena"      
[13] "Choco"           "Amazonas"       
# A tibble: 2 x 2
  Measure `sum(Value)`
  <chr>          <dbl>
1 Cases         120281
2 Deaths          4208
# A tibble: 28 x 3
# Groups:   Region [14]
   Region    Measure `sum(Value)`
   <chr>     <chr>          <dbl>
 1 Amazonas  Cases           2384
 2 Amazonas  Deaths            96
 3 Antioquia Cases           6385
 4 Antioquia Deaths            53
 5 Atlantico Cases          27920
 6 Atlantico Deaths          1520
 7 Bogota    Cases          37641
 8 Bogota    Deaths           858
 9 Bolivar   Cases          10723
10 Bolivar   Deaths           411
# ... with 18 more rows
…
[1] "2020-07-03"
Joining, by = c("Region", "Sex", "Measure", "Age")
[1] "2020-07-04"
Joining, by = c("Region", "Sex", "Measure", "Age")
[1] "2020-07-05"
Joining, by = c("Region", "Sex", "Measure", "Age")
[1] "2020-07-06"
Joining, by = c("Region", "Sex", "Measure", "Age")
Joining, by = "Region"
# A tibble: 1 x 3
  Region  Cases Deaths
  <chr>   <dbl>  <dbl>
1 All    120198   4207
Adding missing grouping variables: `Region`
# A tibble: 26 x 3
# Groups:   Region [13]
   Region    Measure Value
   <chr>     <chr>   <dbl>
 1 Amazonas  Cases    2372
 2 Amazonas  Deaths     96
 3 Antioquia Cases    6379
 4 Antioquia Deaths     53
 5 Atlantico Cases   27870
 6 Atlantico Deaths   1519
 7 Bogota    Cases   37641
 8 Bogota    Deaths    858
 9 Bolivar   Cases   10716
10 Bolivar   Deaths    411
# ... with 16 more rows
…
[13] "Cundinamarca"    "Guainia"         "Guajira"         "Huila"          
[17] "Magdalena"       "Meta"            "Nariño"          "Nte Santander"  
[21] "Putumayo"        "Quindio"         "Risaralda"       "Santa Marta"    
[25] "Santander"       "Sucre"           "Tolima"          "Valle del Cauca"
[29] "Vaupes"         
 [1] "Bogota"          "Valle del Cauca" "Antioquia"       "Bolivar"        
 [5] "resto"           "Cundinamarca"    "Atlantico"       "Santa Marta"    
 [9] "Nariño"          "Cordoba"         "Sucre"           "Magdalena"      
[13] "Choco"           "Amazonas"       
# A tibble: 2 x 2
  Measure `sum(Value)`
  <chr>          <dbl>
1 Cases         124494
2 Deaths          4357
# A tibble: 28 x 3
# Groups:   Region [14]
   Region    Measure `sum(Value)`
   <chr>     <chr>          <dbl>
 1 Amazonas  Cases           2391
 2 Amazonas  Deaths            98
 3 Antioquia Cases           6773
 4 Antioquia Deaths            57
 5 Atlantico Cases          28732
 6 Atlantico Deaths          1591
 7 Bogota    Cases          39248
 8 Bogota    Deaths           880
 9 Bolivar   Cases          10945
10 Bolivar   Deaths           417
# ... with 18 more rows
…
[1] "2020-07-04"
Joining, by = c("Region", "Sex", "Measure", "Age")
[1] "2020-07-05"
Joining, by = c("Region", "Sex", "Measure", "Age")
[1] "2020-07-06"
Joining, by = c("Region", "Sex", "Measure", "Age")
[1] "2020-07-07"
Joining, by = c("Region", "Sex", "Measure", "Age")
Joining, by = "Region"
# A tibble: 1 x 3
  Region  Cases Deaths
  <chr>   <dbl>  <dbl>
1 All    121549   4357
Adding missing grouping variables: `Region`
# A tibble: 26 x 3
# Groups:   Region [13]
   Region    Measure Value
   <chr>     <chr>   <dbl>
 1 Amazonas  Cases    2288
 2 Amazonas  Deaths     98
 3 Antioquia Cases    6621
 4 Antioquia Deaths     57
 5 Atlantico Cases   27303
 6 Atlantico Deaths   1591
 7 Bogota    Cases   39215
 8 Bogota    Deaths    880
 9 Bolivar   Cases   10535
10 Bolivar   Deaths    417
# ... with 16 more rows
…
[13] "Cundinamarca"    "Guainia"         "Guajira"         "Huila"          
[17] "Magdalena"       "Meta"            "Nariño"          "Nte Santander"  
[21] "Putumayo"        "Quindio"         "Risaralda"       "Santa Marta"    
[25] "Santander"       "Sucre"           "Tolima"          "Valle del Cauca"
[29] "Vaupes"         
 [1] "Bogota"          "Valle del Cauca" "Antioquia"       "Bolivar"        
 [5] "resto"           "Cundinamarca"    "Atlantico"       "Santa Marta"    
 [9] "Nariño"          "Cordoba"         "Sucre"           "Magdalena"      
[13] "Choco"           "Amazonas"       
# A tibble: 2 x 2
  Measure `sum(Value)`
  <chr>          <dbl>
1 Cases         128638
2 Deaths          4519
# A tibble: 28 x 3
# Groups:   Region [14]
   Region    Measure `sum(Value)`
   <chr>     <chr>          <dbl>
 1 Amazonas  Cases           2394
 2 Amazonas  Deaths            98
 3 Antioquia Cases           7246
 4 Antioquia Deaths            61
 5 Atlantico Cases          29572
 6 Atlantico Deaths          1640
 7 Bogota    Cases          40737
 8 Bogota    Deaths           914
 9 Bolivar   Cases          11254
10 Bolivar   Deaths           427
# ... with 18 more rows
…
[1] "2020-07-05"
Joining, by = c("Region", "Sex", "Measure", "Age")
[1] "2020-07-06"
Joining, by = c("Region", "Sex", "Measure", "Age")
[1] "2020-07-07"
Joining, by = c("Region", "Sex", "Measure", "Age")
[1] "2020-07-08"
Joining, by = c("Region", "Sex", "Measure", "Age")
Joining, by = "Region"
# A tibble: 1 x 3
  Region  Cases Deaths
  <chr>   <dbl>  <dbl>
1 All    125674   4519
Adding missing grouping variables: `Region`
# A tibble: 26 x 3
# Groups:   Region [13]
   Region    Measure Value
   <chr>     <chr>   <dbl>
 1 Amazonas  Cases    2291
 2 Amazonas  Deaths     98
 3 Antioquia Cases    7091
 4 Antioquia Deaths     61
 5 Atlantico Cases   28136
 6 Atlantico Deaths   1640
 7 Bogota    Cases   40704
 8 Bogota    Deaths    914
 9 Bolivar   Cases   10841
10 Bolivar   Deaths    427
# ... with 16 more rows
…
[13] "Cordoba"         "Cundinamarca"    "Guainia"         "Guajira"        
[17] "Huila"           "Magdalena"       "Meta"            "Nariño"         
[21] "Nte Santander"   "Putumayo"        "Quindio"         "Risaralda"      
[25] "Santa Marta"     "Santander"       "Sucre"           "Tolima"         
[29] "Valle del Cauca" "Vaupes"         
 [1] "Bogota"          "Valle del Cauca" "Antioquia"       "Bolivar"        
 [5] "resto"           "Cundinamarca"    "Atlantico"       "Santa Marta"    
 [9] "Nariño"          "Cordoba"         "Sucre"           "Magdalena"      
[13] "Choco"           "Amazonas"       
# A tibble: 2 x 2
  Measure `sum(Value)`
  <chr>          <dbl>
1 Cases         133973
2 Deaths          4701
# A tibble: 28 x 3
# Groups:   Region [14]
   Region    Measure `sum(Value)`
   <chr>     <chr>          <dbl>
 1 Amazonas  Cases           2399
 2 Amazonas  Deaths           100
 3 Antioquia Cases           7825
 4 Antioquia Deaths            67
 5 Atlantico Cases          30617
 6 Atlantico Deaths          1697
 7 Bogota    Cases          42347
 8 Bogota    Deaths           947
 9 Bolivar   Cases          11459
10 Bolivar   Deaths           430
# ... with 18 more rows
…
[1] "2020-07-27"
Joining, by = c("Region", "Sex", "Measure", "Age")
[1] "2020-07-28"
Joining, by = c("Region", "Sex", "Measure", "Age")
[1] "2020-07-29"
Joining, by = c("Region", "Sex", "Measure", "Age")
[1] "2020-07-30"
Joining, by = c("Region", "Sex", "Measure", "Age")
Joining, by = "Region"
# A tibble: 1 x 3
  Region  Cases Deaths
  <chr>   <dbl>  <dbl>
1 All    130884   4701
Adding missing grouping variables: `Region`
# A tibble: 26 x 3
# Groups:   Region [13]
   Region    Measure Value
   <chr>     <chr>   <dbl>
 1 Amazonas  Cases    2292
 2 Amazonas  Deaths    100
 3 Antioquia Cases    7658
 4 Antioquia Deaths     67
 5 Atlantico Cases   29114
 6 Atlantico Deaths   1697
 7 Bogota    Cases   42313
 8 Bogota    Deaths    947
 9 Bolivar   Cases   11039
10 Bolivar   Deaths    430
# ... with 16 more rows
…
[13] "Cordoba"         "Cundinamarca"    "Guainia"         "Guajira"        
[17] "Huila"           "Magdalena"       "Meta"            "Nariño"         
[21] "Nte Santander"   "Putumayo"        "Quindio"         "Risaralda"      
[25] "Santa Marta"     "Santander"       "Sucre"           "Tolima"         
[29] "Valle del Cauca" "Vaupes"         
 [1] "Bogota"          "Valle del Cauca" "Antioquia"       "Bolivar"        
 [5] "resto"           "Cundinamarca"    "Atlantico"       "Santa Marta"    
 [9] "Nariño"          "Cordoba"         "Sucre"           "Magdalena"      
[13] "Choco"           "Amazonas"       
# A tibble: 2 x 2
  Measure `sum(Value)`
  <chr>          <dbl>
1 Cases         140776
2 Deaths          4904
# A tibble: 28 x 3
# Groups:   Region [14]
   Region    Measure `sum(Value)`
   <chr>     <chr>          <dbl>
 1 Amazonas  Cases           2406
 2 Amazonas  Deaths           100
 3 Antioquia Cases           8451
 4 Antioquia Deaths            71
 5 Atlantico Cases          31882
 6 Atlantico Deaths          1756
 7 Bogota    Cases          45039
 8 Bogota    Deaths           987
 9 Bolivar   Cases          11733
10 Bolivar   Deaths           432
# ... with 18 more rows
…
